
---SRT-- Script is started to read RunParameters.xml file for each sequencer at 16-06-13 13:45:56
--------- 59 , Sequencer found to read the RunParameters.xml files. at 16-06-13 13:45:56
-xxx----- RunParameters.xml Master information Not Added in Database , Error occured at 16-06-13 13:45:56
-xxx----- RunParameters.xml Master information Not Added in Database , Error occured at 16-06-13 13:45:56
-xxx----- RunParameters.xml Master information Not Added in Database , Error occured at 16-06-13 13:45:56
-xxx----- RunParameters.xml Master information Not Added in Database , Error occured at 16-06-13 13:45:56
-xxx----- RunParameters.xml Master information Not Added in Database , Error occured at 16-06-13 13:45:56
-xxx----- RunParameters.xml Master information Not Added in Database , Error occured at 16-06-13 13:45:57
-xxx----- RunParameters.xml Master information Not Added in Database , Error occured at 16-06-13 13:45:57
-xxx----- RunParameters.xml Master information Not Added in Database , Error occured at 16-06-13 13:45:57
-xxx----- RunParameters.xml Master information Not Added in Database , Error occured at 16-06-13 13:45:57
-xxx----- RunParameters.xml Master information Not Added in Database , Error occured at 16-06-13 13:45:57
-xxx----- RunParameters.xml Master information Not Added in Database , Error occured at 16-06-13 13:45:57
-xxx----- RunParameters.xml Master information Not Added in Database , Error occured at 16-06-13 13:45:57
-xxx----- RunParameters.xml Master information Not Added in Database , Error occured at 16-06-13 13:45:57
-xxx----- RunParameters.xml Master information Not Added in Database , Error occured at 16-06-13 13:45:57
-xxx----- RunParameters.xml Master information Not Added in Database , Error occured at 16-06-13 13:45:58
-xxx----- RunParameters.xml Master information Not Added in Database , Error occured at 16-06-13 13:45:58
-xxx----- RunParameters.xml Master information Not Added in Database , Error occured at 16-06-13 13:45:58
-xxx----- RunParameters.xml Master information Not Added in Database , Error occured at 16-06-13 13:45:58
-xxx----- RunParameters.xml Master information Not Added in Database , Error occured at 16-06-13 13:45:58
-xxx----- RunParameters.xml Master information Not Added in Database , Error occured at 16-06-13 13:45:58
-xxx----- RunParameters.xml Master information Not Added in Database , Error occured at 16-06-13 13:45:58
-xxx----- RunParameters.xml Master information Not Added in Database , Error occured at 16-06-13 13:45:58
-xxx----- RunParameters.xml Master information Not Added in Database , Error occured at 16-06-13 13:45:58
-xxx----- RunParameters.xml Master information Not Added in Database , Error occured at 16-06-13 13:45:59
-xxx----- RunParameters.xml Master information Not Added in Database , Error occured at 16-06-13 13:45:59
-xxx----- RunParameters.xml Master information Not Added in Database , Error occured at 16-06-13 13:45:59
-xxx----- RunParameters.xml Master information Not Added in Database , Error occured at 16-06-13 13:45:59
-xxx----- RunParameters.xml Master information Not Added in Database , Error occured at 16-06-13 13:45:59
-xxx----- RunParameters.xml Master information Not Added in Database , Error occured at 16-06-13 13:45:59
-xxx----- RunParameters.xml Master information Not Added in Database , Error occured at 16-06-13 13:45:59
-xxx----- RunParameters.xml Master information Not Added in Database , Error occured at 16-06-13 13:45:59
-xxx----- RunParameters.xml Master information Not Added in Database , Error occured at 16-06-13 13:45:59
-xxx----- RunParameters.xml Master information Not Added in Database , Error occured at 16-06-13 13:45:59
-xxx----- RunParameters.xml Master information Not Added in Database , Error occured at 16-06-13 13:45:59
-xxx----- RunParameters.xml Master information Not Added in Database , Error occured at 16-06-13 13:46:00
-xxx----- RunParameters.xml Master information Not Added in Database , Error occured at 16-06-13 13:46:00
-xxx----- RunParameters.xml Master information Not Added in Database , Error occured at 16-06-13 13:46:00
-xxx----- RunParameters.xml Master information Not Added in Database , Error occured at 16-06-13 13:46:00
-xxx----- RunParameters.xml Master information Not Added in Database , Error occured at 16-06-13 13:46:00
-xxx----- RunParameters.xml Master information Not Added in Database , Error occured at 16-06-13 13:46:00
-xxx----- RunParameters.xml Master information Not Added in Database , Error occured at 16-06-13 13:46:00
-xxx----- RunParameters.xml Master information Not Added in Database , Error occured at 16-06-13 13:46:00
-xxx----- RunParameters.xml Master information Not Added in Database , Error occured at 16-06-13 13:46:00
-xxx----- RunParameters.xml Master information Not Added in Database , Error occured at 16-06-13 13:46:01
-xxx----- RunParameters.xml Master information Not Added in Database , Error occured at 16-06-13 13:46:01
-xxx----- RunParameters.xml Master information Not Added in Database , Error occured at 16-06-13 13:46:01
-xxx----- RunParameters.xml Master information Not Added in Database , Error occured at 16-06-13 13:46:01
-xxx----- RunParameters.xml Master information Not Added in Database , Error occured at 16-06-13 13:46:01
-xxx----- RunParameters.xml Master information Not Added in Database , Error occured at 16-06-13 13:46:01
-xxx----- RunParameters.xml Master information Not Added in Database , Error occured at 16-06-13 13:46:01
-xxx----- RunParameters.xml Master information Not Added in Database , Error occured at 16-06-13 13:46:01
-xxx----- RunParameters.xml Master information Not Added in Database , Error occured at 16-06-13 13:46:02
-xxx----- RunParameters.xml Master information Not Added in Database , Error occured at 16-06-13 13:46:02
-xxx----- RunParameters.xml Master information Not Added in Database , Error occured at 16-06-13 13:46:02
-xxx----- RunParameters.xml Master information Not Added in Database , Error occured at 16-06-13 13:46:02
-xxx----- RunParameters.xml Master information Not Added in Database , Error occured at 16-06-13 13:46:02
-xxx----- RunParameters.xml Master information Not Added in Database , Error occured at 16-06-13 13:46:02
-xxx----- RunParameters.xml Master information Not Added in Database , Error occured at 16-06-13 13:46:02
-xxx----- RunParameters.xml Master information Not Added in Database , Error occured at 16-06-13 13:46:02
---OVR-- Script is Finished to reading RunParameters.xml file for each sequencer at 16-06-13 13:46:02

---SRT-- Script is started to read RunParameters.xml file for each sequencer at 16-06-13 13:58:03
--------- 118 , Sequencer found to read the RunParameters.xml files. at 16-06-13 13:58:03

---SRT-- Script is started to read RunParameters.xml file for each sequencer at 16-06-13 13:58:16
--------- 118 , Sequencer found to read the RunParameters.xml files. at 16-06-13 13:58:16

---SRT-- Script is started to read RunParameters.xml file for each sequencer at 16-06-13 14:35:18
--------- 118 , Sequencer found to read the RunParameters.xml files. at 16-06-13 14:35:18
-xxx----- RunParameters.xml Master information Not Added in Database , Error occured at 16-06-13 14:35:18
-xxx----- RunParameters.xml Master information Not Added in Database , Error occured at 16-06-13 14:35:18
-xxx----- RunParameters.xml Master information Not Added in Database , Error occured at 16-06-13 14:35:18
-xxx----- RunParameters.xml Master information Not Added in Database , Error occured at 16-06-13 14:35:18
-xxx----- RunParameters.xml Master information Not Added in Database , Error occured at 16-06-13 14:35:18
-xxx----- RunParameters.xml Master information Not Added in Database , Error occured at 16-06-13 14:35:18
-xxx----- RunParameters.xml Master information Not Added in Database , Error occured at 16-06-13 14:35:18
-xxx----- RunParameters.xml Master information Not Added in Database , Error occured at 16-06-13 14:35:18
-xxx----- RunParameters.xml Master information Not Added in Database , Error occured at 16-06-13 14:35:19
-xxx----- RunParameters.xml Master information Not Added in Database , Error occured at 16-06-13 14:35:19
-xxx----- RunParameters.xml Master information Not Added in Database , Error occured at 16-06-13 14:35:19
-xxx----- RunParameters.xml Master information Not Added in Database , Error occured at 16-06-13 14:35:19
-xxx----- RunParameters.xml Master information Not Added in Database , Error occured at 16-06-13 14:35:19
-xxx----- RunParameters.xml Master information Not Added in Database , Error occured at 16-06-13 14:35:19
-xxx----- RunParameters.xml Master information Not Added in Database , Error occured at 16-06-13 14:35:19
-xxx----- RunParameters.xml Master information Not Added in Database , Error occured at 16-06-13 14:35:19
-xxx----- RunParameters.xml Master information Not Added in Database , Error occured at 16-06-13 14:35:19
-xxx----- RunParameters.xml Master information Not Added in Database , Error occured at 16-06-13 14:35:19
-xxx----- RunParameters.xml Master information Not Added in Database , Error occured at 16-06-13 14:35:19
-xxx----- RunParameters.xml Master information Not Added in Database , Error occured at 16-06-13 14:35:20
-xxx----- RunParameters.xml Master information Not Added in Database , Error occured at 16-06-13 14:35:20
-xxx----- RunParameters.xml Master information Not Added in Database , Error occured at 16-06-13 14:35:20
-xxx----- RunParameters.xml Master information Not Added in Database , Error occured at 16-06-13 14:35:20
-xxx----- RunParameters.xml Master information Not Added in Database , Error occured at 16-06-13 14:35:20
-xxx----- RunParameters.xml Master information Not Added in Database , Error occured at 16-06-13 14:35:20
-xxx----- RunParameters.xml Master information Not Added in Database , Error occured at 16-06-13 14:35:20
-xxx----- RunParameters.xml Master information Not Added in Database , Error occured at 16-06-13 14:35:20
-xxx----- RunParameters.xml Master information Not Added in Database , Error occured at 16-06-13 14:35:20
-xxx----- RunParameters.xml Master information Not Added in Database , Error occured at 16-06-13 14:35:20
-xxx----- RunParameters.xml Master information Not Added in Database , Error occured at 16-06-13 14:35:20
-xxx----- RunParameters.xml Master information Not Added in Database , Error occured at 16-06-13 14:35:21
-xxx----- RunParameters.xml Master information Not Added in Database , Error occured at 16-06-13 14:35:21
-xxx----- RunParameters.xml Master information Not Added in Database , Error occured at 16-06-13 14:35:21
-xxx----- RunParameters.xml Master information Not Added in Database , Error occured at 16-06-13 14:35:21
-xxx----- RunParameters.xml Master information Not Added in Database , Error occured at 16-06-13 14:35:21
-xxx----- RunParameters.xml Master information Not Added in Database , Error occured at 16-06-13 14:35:21
-xxx----- RunParameters.xml Master information Not Added in Database , Error occured at 16-06-13 14:35:21
-xxx----- RunParameters.xml Master information Not Added in Database , Error occured at 16-06-13 14:35:22
-xxx----- RunParameters.xml Master information Not Added in Database , Error occured at 16-06-13 14:35:22
-xxx----- RunParameters.xml Master information Not Added in Database , Error occured at 16-06-13 14:35:22
-xxx----- RunParameters.xml Master information Not Added in Database , Error occured at 16-06-13 14:35:22
-xxx----- RunParameters.xml Master information Not Added in Database , Error occured at 16-06-13 14:35:22
-xxx----- RunParameters.xml Master information Not Added in Database , Error occured at 16-06-13 14:35:22
-xxx----- RunParameters.xml Master information Not Added in Database , Error occured at 16-06-13 14:35:22
-xxx----- RunParameters.xml Master information Not Added in Database , Error occured at 16-06-13 14:35:22
-xxx----- RunParameters.xml Master information Not Added in Database , Error occured at 16-06-13 14:35:22
-xxx----- RunParameters.xml Master information Not Added in Database , Error occured at 16-06-13 14:35:22
-xxx----- RunParameters.xml Master information Not Added in Database , Error occured at 16-06-13 14:35:23
-xxx----- RunParameters.xml Master information Not Added in Database , Error occured at 16-06-13 14:35:23
-xxx----- RunParameters.xml Master information Not Added in Database , Error occured at 16-06-13 14:35:23
-xxx----- RunParameters.xml Master information Not Added in Database , Error occured at 16-06-13 14:35:23
-xxx----- RunParameters.xml Master information Not Added in Database , Error occured at 16-06-13 14:35:23
-xxx----- RunParameters.xml Master information Not Added in Database , Error occured at 16-06-13 14:35:23
-xxx----- RunParameters.xml Master information Not Added in Database , Error occured at 16-06-13 14:35:23
-xxx----- RunParameters.xml Master information Not Added in Database , Error occured at 16-06-13 14:35:24
-xxx----- RunParameters.xml Master information Not Added in Database , Error occured at 16-06-13 14:35:24
-xxx----- RunParameters.xml Master information Not Added in Database , Error occured at 16-06-13 14:35:24
-xxx----- RunParameters.xml Master information Not Added in Database , Error occured at 16-06-13 14:35:24
-xxx----- RunParameters.xml Master information Not Added in Database , Error occured at 16-06-13 14:35:24
-xxx----- RunParameters.xml Master information Not Added in Database , Error occured at 16-06-13 14:35:24
-xxx----- RunParameters.xml Master information Not Added in Database , Error occured at 16-06-13 14:35:24
-xxx----- RunParameters.xml Master information Not Added in Database , Error occured at 16-06-13 14:35:24
-xxx----- RunParameters.xml Master information Not Added in Database , Error occured at 16-06-13 14:35:24
-xxx----- RunParameters.xml Master information Not Added in Database , Error occured at 16-06-13 14:35:24
-xxx----- RunParameters.xml Master information Not Added in Database , Error occured at 16-06-13 14:35:24
-xxx----- RunParameters.xml Master information Not Added in Database , Error occured at 16-06-13 14:35:25
-xxx----- RunParameters.xml Master information Not Added in Database , Error occured at 16-06-13 14:35:25
-xxx----- RunParameters.xml Master information Not Added in Database , Error occured at 16-06-13 14:35:25
-xxx----- RunParameters.xml Master information Not Added in Database , Error occured at 16-06-13 14:35:25
-xxx----- RunParameters.xml Master information Not Added in Database , Error occured at 16-06-13 14:35:25
-xxx----- RunParameters.xml Master information Not Added in Database , Error occured at 16-06-13 14:35:25
-xxx----- RunParameters.xml Master information Not Added in Database , Error occured at 16-06-13 14:35:25
-xxx----- RunParameters.xml Master information Not Added in Database , Error occured at 16-06-13 14:35:25
-xxx----- RunParameters.xml Master information Not Added in Database , Error occured at 16-06-13 14:35:25
-xxx----- RunParameters.xml Master information Not Added in Database , Error occured at 16-06-13 14:35:26
-xxx----- RunParameters.xml Master information Not Added in Database , Error occured at 16-06-13 14:35:26
-xxx----- RunParameters.xml Master information Not Added in Database , Error occured at 16-06-13 14:35:26
-xxx----- RunParameters.xml Master information Not Added in Database , Error occured at 16-06-13 14:35:26
-xxx----- RunParameters.xml Master information Not Added in Database , Error occured at 16-06-13 14:35:26
-xxx----- RunParameters.xml Master information Not Added in Database , Error occured at 16-06-13 14:35:26
-xxx----- RunParameters.xml Master information Not Added in Database , Error occured at 16-06-13 14:35:26
-xxx----- RunParameters.xml Master information Not Added in Database , Error occured at 16-06-13 14:35:27
-xxx----- RunParameters.xml Master information Not Added in Database , Error occured at 16-06-13 14:35:27
-xxx----- RunParameters.xml Master information Not Added in Database , Error occured at 16-06-13 14:35:27
-xxx----- RunParameters.xml Master information Not Added in Database , Error occured at 16-06-13 14:35:27
-xxx----- RunParameters.xml Master information Not Added in Database , Error occured at 16-06-13 14:35:27
-xxx----- RunParameters.xml Master information Not Added in Database , Error occured at 16-06-13 14:35:27
-xxx----- RunParameters.xml Master information Not Added in Database , Error occured at 16-06-13 14:35:27
-xxx----- RunParameters.xml Master information Not Added in Database , Error occured at 16-06-13 14:35:27
-xxx----- RunParameters.xml Master information Not Added in Database , Error occured at 16-06-13 14:35:27
-xxx----- RunParameters.xml Master information Not Added in Database , Error occured at 16-06-13 14:35:27
-xxx----- RunParameters.xml Master information Not Added in Database , Error occured at 16-06-13 14:35:27
-xxx----- RunParameters.xml Master information Not Added in Database , Error occured at 16-06-13 14:35:27
-xxx----- RunParameters.xml Master information Not Added in Database , Error occured at 16-06-13 14:35:28
-xxx----- RunParameters.xml Master information Not Added in Database , Error occured at 16-06-13 14:35:28
-xxx----- RunParameters.xml Master information Not Added in Database , Error occured at 16-06-13 14:35:28
-xxx----- RunParameters.xml Master information Not Added in Database , Error occured at 16-06-13 14:35:28
-xxx----- RunParameters.xml Master information Not Added in Database , Error occured at 16-06-13 14:35:28
-xxx----- RunParameters.xml Master information Not Added in Database , Error occured at 16-06-13 14:35:28
-xxx----- RunParameters.xml Master information Not Added in Database , Error occured at 16-06-13 14:35:28
-xxx----- RunParameters.xml Master information Not Added in Database , Error occured at 16-06-13 14:35:28
-xxx----- RunParameters.xml Master information Not Added in Database , Error occured at 16-06-13 14:35:28
-xxx----- RunParameters.xml Master information Not Added in Database , Error occured at 16-06-13 14:35:29
-xxx----- RunParameters.xml Master information Not Added in Database , Error occured at 16-06-13 14:35:29
-xxx----- RunParameters.xml Master information Not Added in Database , Error occured at 16-06-13 14:35:29
-xxx----- RunParameters.xml Master information Not Added in Database , Error occured at 16-06-13 14:35:29
-xxx----- RunParameters.xml Master information Not Added in Database , Error occured at 16-06-13 14:35:29
-xxx----- RunParameters.xml Master information Not Added in Database , Error occured at 16-06-13 14:35:29
-xxx----- RunParameters.xml Master information Not Added in Database , Error occured at 16-06-13 14:35:29
-xxx----- RunParameters.xml Master information Not Added in Database , Error occured at 16-06-13 14:35:29
-xxx----- RunParameters.xml Master information Not Added in Database , Error occured at 16-06-13 14:35:29
-xxx----- RunParameters.xml Master information Not Added in Database , Error occured at 16-06-13 14:35:29
-xxx----- RunParameters.xml Master information Not Added in Database , Error occured at 16-06-13 14:35:29
-xxx----- RunParameters.xml Master information Not Added in Database , Error occured at 16-06-13 14:35:30
-xxx----- RunParameters.xml Master information Not Added in Database , Error occured at 16-06-13 14:35:30
-xxx----- RunParameters.xml Master information Not Added in Database , Error occured at 16-06-13 14:35:30
-xxx----- RunParameters.xml Master information Not Added in Database , Error occured at 16-06-13 14:35:30
-xxx----- RunParameters.xml Master information Not Added in Database , Error occured at 16-06-13 14:35:30
---OVR-- Script is Finished to reading RunParameters.xml file for each sequencer at 16-06-13 14:35:30

---SRT-- Script is started to read RunParameters.xml file for each sequencer at 16-06-13 14:45:33
--------- 118 , Sequencer found to read the RunParameters.xml files. at 16-06-13 14:45:33
---OVR-- Script is Finished to reading RunParameters.xml file for each sequencer at 16-06-13 14:45:33

---SRT-- Script is started to read RunParameters.xml file for each sequencer at 16-06-13 14:45:50

---SRT-- Script is started to read RunParameters.xml file for each sequencer at 16-06-13 14:46:29
--------- 118 , Sequencer found to read the RunParameters.xml files. at 16-06-13 14:46:29
---OVR-- Script is Finished to reading RunParameters.xml file for each sequencer at 16-06-13 14:46:29

---SRT-- Script is started to read RunParameters.xml file for each sequencer at 16-06-13 14:46:59
--------- 118 , Sequencer found to read the RunParameters.xml files. at 16-06-13 14:46:59
---OVR-- Script is Finished to reading RunParameters.xml file for each sequencer at 16-06-13 14:47:00

---SRT-- Script is started to read RunParameters.xml file for each sequencer at 16-06-13 14:48:06
--------- 118 , Sequencer found to read the RunParameters.xml files. at 16-06-13 14:48:06
---OVR-- Script is Finished to reading RunParameters.xml file for each sequencer at 16-06-13 14:48:07

---SRT-- Script is started to read RunParameters.xml file for each sequencer at 16-06-13 14:48:26
--------- 118 , Sequencer found to read the RunParameters.xml files. at 16-06-13 14:48:26
---OVR-- Script is Finished to reading RunParameters.xml file for each sequencer at 16-06-13 14:48:26

---SRT-- Script is started to read RunParameters.xml file for each sequencer at 16-06-13 14:49:13
--------- 236 , Sequencer found to read the RunParameters.xml files. at 16-06-13 14:49:13
---OVR-- Script is Finished to reading RunParameters.xml file for each sequencer at 16-06-13 14:49:14

---SRT-- Script is started to read RunParameters.xml file for each sequencer at 16-06-13 14:50:42
--------- 236 , Sequencer found to read the RunParameters.xml files. at 16-06-13 14:50:42
---OVR-- Script is Finished to reading RunParameters.xml file for each sequencer at 16-06-13 14:50:42

---SRT-- Script is started to read RunParameters.xml file for each sequencer at 16-06-13 14:51:01

---SRT-- Script is started to read RunParameters.xml file for each sequencer at 16-06-13 14:51:37

---SRT-- Script is started to read RunParameters.xml file for each sequencer at 16-06-13 14:56:03

---SRT-- Script is started to read RunParameters.xml file for each sequencer at 16-06-13 15:03:22

---SRT-- Script is started to read RunParameters.xml file for each sequencer at 16-06-13 15:03:32
--------- 59 , Sequencer found to read the RunParameters.xml files. at 16-06-13 15:03:32
---OVR-- Script is Finished to reading RunParameters.xml file for each sequencer at 16-06-13 15:03:32

---SRT-- Script is started to read RunParameters.xml file for each sequencer at 16-06-13 15:05:19

---SRT-- Script is started to read RunParameters.xml file for each sequencer at 16-06-13 15:19:37

---SRT-- Script is started to read RunParameters.xml file for each sequencer at 16-06-13 15:20:06

---SRT-- Script is started to read RunParameters.xml file for each sequencer at 16-06-13 15:26:03

---SRT-- Script is started to read RunParameters.xml file for each sequencer at 16-06-13 15:26:54
--------- 60 , Sequencer found to read the RunParameters.xml files. at 16-06-13 15:26:54

---SRT-- Script is started to read RunParameters.xml file for each sequencer at 16-06-13 15:27:07
--------- 60 , Sequencer found to read the RunParameters.xml files. at 16-06-13 15:27:07

---SRT-- Script is started to read RunParameters.xml file for each sequencer at 16-06-13 15:28:11
--------- 60 , Sequencer found to read the RunParameters.xml files. at 16-06-13 15:28:11

---SRT-- Script is started to read RunParameters.xml file for each sequencer at 16-06-13 15:29:39
--------- 60 , Sequencer found to read the RunParameters.xml files. at 16-06-13 15:29:39
-xxx----- RunParameters.xml Master information Not Added in Database , Error occured at 16-06-13 15:29:39
-xxx----- RunParameters.xml Master information Not Added in Database , Error occured at 16-06-13 15:29:39
-xxx----- RunParameters.xml Master information Not Added in Database , Error occured at 16-06-13 15:29:39
-xxx----- RunParameters.xml Master information Not Added in Database , Error occured at 16-06-13 15:29:39
-xxx----- RunParameters.xml Master information Not Added in Database , Error occured at 16-06-13 15:29:39
-xxx----- RunParameters.xml Master information Not Added in Database , Error occured at 16-06-13 15:29:39
-xxx----- RunParameters.xml Master information Not Added in Database , Error occured at 16-06-13 15:29:39
-xxx----- RunParameters.xml Master information Not Added in Database , Error occured at 16-06-13 15:29:40
-xxx----- RunParameters.xml Master information Not Added in Database , Error occured at 16-06-13 15:29:40
-xxx----- RunParameters.xml Master information Not Added in Database , Error occured at 16-06-13 15:29:40
-xxx----- RunParameters.xml Master information Not Added in Database , Error occured at 16-06-13 15:29:40
-xxx----- RunParameters.xml Master information Not Added in Database , Error occured at 16-06-13 15:29:40
-xxx----- RunParameters.xml Master information Not Added in Database , Error occured at 16-06-13 15:29:40
-xxx----- RunParameters.xml Master information Not Added in Database , Error occured at 16-06-13 15:29:40
-xxx----- RunParameters.xml Master information Not Added in Database , Error occured at 16-06-13 15:29:40
-xxx----- RunParameters.xml Master information Not Added in Database , Error occured at 16-06-13 15:29:40
-xxx----- RunParameters.xml Master information Not Added in Database , Error occured at 16-06-13 15:29:40
-xxx----- RunParameters.xml Master information Not Added in Database , Error occured at 16-06-13 15:29:40
-xxx----- RunParameters.xml Master information Not Added in Database , Error occured at 16-06-13 15:29:40
-xxx----- RunParameters.xml Master information Not Added in Database , Error occured at 16-06-13 15:29:41
-xxx----- RunParameters.xml Master information Not Added in Database , Error occured at 16-06-13 15:29:41
-xxx----- RunParameters.xml Master information Not Added in Database , Error occured at 16-06-13 15:29:41
-xxx----- RunParameters.xml Master information Not Added in Database , Error occured at 16-06-13 15:29:41
-xxx----- RunParameters.xml Master information Not Added in Database , Error occured at 16-06-13 15:29:41
-xxx----- RunParameters.xml Master information Not Added in Database , Error occured at 16-06-13 15:29:41
-xxx----- RunParameters.xml Master information Not Added in Database , Error occured at 16-06-13 15:29:41
-xxx----- RunParameters.xml Master information Not Added in Database , Error occured at 16-06-13 15:29:41
-xxx----- RunParameters.xml Master information Not Added in Database , Error occured at 16-06-13 15:29:41
-xxx----- RunParameters.xml Master information Not Added in Database , Error occured at 16-06-13 15:29:41
-xxx----- RunParameters.xml Master information Not Added in Database , Error occured at 16-06-13 15:29:42
-xxx----- RunParameters.xml Master information Not Added in Database , Error occured at 16-06-13 15:29:42
-xxx----- RunParameters.xml Master information Not Added in Database , Error occured at 16-06-13 15:29:42
-xxx----- RunParameters.xml Master information Not Added in Database , Error occured at 16-06-13 15:29:42
-xxx----- RunParameters.xml Master information Not Added in Database , Error occured at 16-06-13 15:29:42
-xxx----- RunParameters.xml Master information Not Added in Database , Error occured at 16-06-13 15:29:42
-xxx----- RunParameters.xml Master information Not Added in Database , Error occured at 16-06-13 15:29:42
-xxx----- RunParameters.xml Master information Not Added in Database , Error occured at 16-06-13 15:29:42
-xxx----- RunParameters.xml Master information Not Added in Database , Error occured at 16-06-13 15:29:42
-xxx----- RunParameters.xml Master information Not Added in Database , Error occured at 16-06-13 15:29:42
-xxx----- RunParameters.xml Master information Not Added in Database , Error occured at 16-06-13 15:29:42
-xxx----- RunParameters.xml Master information Not Added in Database , Error occured at 16-06-13 15:29:43
-xxx----- RunParameters.xml Master information Not Added in Database , Error occured at 16-06-13 15:29:43
-xxx----- RunParameters.xml Master information Not Added in Database , Error occured at 16-06-13 15:29:43
-xxx----- RunParameters.xml Master information Not Added in Database , Error occured at 16-06-13 15:29:43
-xxx----- RunParameters.xml Master information Not Added in Database , Error occured at 16-06-13 15:29:43
-xxx----- RunParameters.xml Master information Not Added in Database , Error occured at 16-06-13 15:29:43
-xxx----- RunParameters.xml Master information Not Added in Database , Error occured at 16-06-13 15:29:43
-xxx----- RunParameters.xml Master information Not Added in Database , Error occured at 16-06-13 15:29:43
-xxx----- RunParameters.xml Master information Not Added in Database , Error occured at 16-06-13 15:29:43
-xxx----- RunParameters.xml Master information Not Added in Database , Error occured at 16-06-13 15:29:43
-xxx----- RunParameters.xml Master information Not Added in Database , Error occured at 16-06-13 15:29:44
-xxx----- RunParameters.xml Master information Not Added in Database , Error occured at 16-06-13 15:29:44
-xxx----- RunParameters.xml Master information Not Added in Database , Error occured at 16-06-13 15:29:44
-xxx----- RunParameters.xml Master information Not Added in Database , Error occured at 16-06-13 15:29:44
-xxx----- RunParameters.xml Master information Not Added in Database , Error occured at 16-06-13 15:29:44
-xxx----- RunParameters.xml Master information Not Added in Database , Error occured at 16-06-13 15:29:44
-xxx----- RunParameters.xml Master information Not Added in Database , Error occured at 16-06-13 15:29:44
-xxx----- RunParameters.xml Master information Not Added in Database , Error occured at 16-06-13 15:29:45
-xxx----- RunParameters.xml Master information Not Added in Database , Error occured at 16-06-13 15:29:45

---SRT-- Script is started to read RunParameters.xml file for each sequencer at 16-06-13 15:30:35
--------- 60 , Sequencer found to read the RunParameters.xml files. at 16-06-13 15:30:35
-xxx----- RunParameters.xml Master information Not Added in Database , Error occured at 16-06-13 15:30:35
-xxx----- RunParameters.xml Master information Not Added in Database , Error occured at 16-06-13 15:30:35
-xxx----- RunParameters.xml Master information Not Added in Database , Error occured at 16-06-13 15:30:35
-xxx----- RunParameters.xml Master information Not Added in Database , Error occured at 16-06-13 15:30:35
-xxx----- RunParameters.xml Master information Not Added in Database , Error occured at 16-06-13 15:30:35
-xxx----- RunParameters.xml Master information Not Added in Database , Error occured at 16-06-13 15:30:36
-xxx----- RunParameters.xml Master information Not Added in Database , Error occured at 16-06-13 15:30:36
-xxx----- RunParameters.xml Master information Not Added in Database , Error occured at 16-06-13 15:30:36
-xxx----- RunParameters.xml Master information Not Added in Database , Error occured at 16-06-13 15:30:36
-xxx----- RunParameters.xml Master information Not Added in Database , Error occured at 16-06-13 15:30:36
-xxx----- RunParameters.xml Master information Not Added in Database , Error occured at 16-06-13 15:30:36
-xxx----- RunParameters.xml Master information Not Added in Database , Error occured at 16-06-13 15:30:36
-xxx----- RunParameters.xml Master information Not Added in Database , Error occured at 16-06-13 15:30:36
-xxx----- RunParameters.xml Master information Not Added in Database , Error occured at 16-06-13 15:30:36
-xxx----- RunParameters.xml Master information Not Added in Database , Error occured at 16-06-13 15:30:36
-xxx----- RunParameters.xml Master information Not Added in Database , Error occured at 16-06-13 15:30:37
-xxx----- RunParameters.xml Master information Not Added in Database , Error occured at 16-06-13 15:30:37
-xxx----- RunParameters.xml Master information Not Added in Database , Error occured at 16-06-13 15:30:37
-xxx----- RunParameters.xml Master information Not Added in Database , Error occured at 16-06-13 15:30:37
-xxx----- RunParameters.xml Master information Not Added in Database , Error occured at 16-06-13 15:30:37
-xxx----- RunParameters.xml Master information Not Added in Database , Error occured at 16-06-13 15:30:37
-xxx----- RunParameters.xml Master information Not Added in Database , Error occured at 16-06-13 15:30:37
-xxx----- RunParameters.xml Master information Not Added in Database , Error occured at 16-06-13 15:30:37
-xxx----- RunParameters.xml Master information Not Added in Database , Error occured at 16-06-13 15:30:37
-xxx----- RunParameters.xml Master information Not Added in Database , Error occured at 16-06-13 15:30:37
-xxx----- RunParameters.xml Master information Not Added in Database , Error occured at 16-06-13 15:30:38
-xxx----- RunParameters.xml Master information Not Added in Database , Error occured at 16-06-13 15:30:38
-xxx----- RunParameters.xml Master information Not Added in Database , Error occured at 16-06-13 15:30:38
-xxx----- RunParameters.xml Master information Not Added in Database , Error occured at 16-06-13 15:30:38
-xxx----- RunParameters.xml Master information Not Added in Database , Error occured at 16-06-13 15:30:38
-xxx----- RunParameters.xml Master information Not Added in Database , Error occured at 16-06-13 15:30:38
-xxx----- RunParameters.xml Master information Not Added in Database , Error occured at 16-06-13 15:30:38
-xxx----- RunParameters.xml Master information Not Added in Database , Error occured at 16-06-13 15:30:38
-xxx----- RunParameters.xml Master information Not Added in Database , Error occured at 16-06-13 15:30:39
-xxx----- RunParameters.xml Master information Not Added in Database , Error occured at 16-06-13 15:30:39
-xxx----- RunParameters.xml Master information Not Added in Database , Error occured at 16-06-13 15:30:39
-xxx----- RunParameters.xml Master information Not Added in Database , Error occured at 16-06-13 15:30:39
-xxx----- RunParameters.xml Master information Not Added in Database , Error occured at 16-06-13 15:30:39
-xxx----- RunParameters.xml Master information Not Added in Database , Error occured at 16-06-13 15:30:39
-xxx----- RunParameters.xml Master information Not Added in Database , Error occured at 16-06-13 15:30:39
-xxx----- RunParameters.xml Master information Not Added in Database , Error occured at 16-06-13 15:30:39
-xxx----- RunParameters.xml Master information Not Added in Database , Error occured at 16-06-13 15:30:39
-xxx----- RunParameters.xml Master information Not Added in Database , Error occured at 16-06-13 15:30:40
-xxx----- RunParameters.xml Master information Not Added in Database , Error occured at 16-06-13 15:30:40
-xxx----- RunParameters.xml Master information Not Added in Database , Error occured at 16-06-13 15:30:40
-xxx----- RunParameters.xml Master information Not Added in Database , Error occured at 16-06-13 15:30:40
-xxx----- RunParameters.xml Master information Not Added in Database , Error occured at 16-06-13 15:30:40
-xxx----- RunParameters.xml Master information Not Added in Database , Error occured at 16-06-13 15:30:40
-xxx----- RunParameters.xml Master information Not Added in Database , Error occured at 16-06-13 15:30:40
-xxx----- RunParameters.xml Master information Not Added in Database , Error occured at 16-06-13 15:30:40
-xxx----- RunParameters.xml Master information Not Added in Database , Error occured at 16-06-13 15:30:40
-xxx----- RunParameters.xml Master information Not Added in Database , Error occured at 16-06-13 15:30:40
-xxx----- RunParameters.xml Master information Not Added in Database , Error occured at 16-06-13 15:30:41
-xxx----- RunParameters.xml Master information Not Added in Database , Error occured at 16-06-13 15:30:41
-xxx----- RunParameters.xml Master information Not Added in Database , Error occured at 16-06-13 15:30:41
-xxx----- RunParameters.xml Master information Not Added in Database , Error occured at 16-06-13 15:30:41
-xxx----- RunParameters.xml Master information Not Added in Database , Error occured at 16-06-13 15:30:41
-xxx----- RunParameters.xml Master information Not Added in Database , Error occured at 16-06-13 15:30:41
-xxx----- RunParameters.xml Master information Not Added in Database , Error occured at 16-06-13 15:30:41
--------- RunParameters.xml Master information Added in Database at 16-06-13 15:30:42
---OVR-- Script is Finished to reading RunParameters.xml file for each sequencer at 16-06-13 15:30:42

---SRT-- Script is started to read DemultiplexingStats.xml file for each sequencer at 16-06-14 12:39:57
